Aulas 4 e 5/parte3/simulation/qsim/parte3.msim.vcd
$comment
	File created using the following command:
		vcd file parte3.msim.vcd -direction
$end
$date
	Mon Sep 16 18:04:47 2024
$end
$version
	ModelSim Version 10.5b
$end
$timescale
	1ps
$end

$scope module parte3_vhd_vec_tst $end
$var wire 1 ! clk $end
$var wire 1 " reset $end
$var wire 1 # seg [6] $end
$var wire 1 $ seg [5] $end
$var wire 1 % seg [4] $end
$var wire 1 & seg [3] $end
$var wire 1 ' seg [2] $end
$var wire 1 ( seg [1] $end
$var wire 1 ) seg [0] $end

$scope module i1 $end
$var wire 1 * gnd $end
$var wire 1 + vcc $end
$var wire 1 , unknown $end
$var wire 1 - devoe $end
$var wire 1 . devclrn $end
$var wire 1 / devpor $end
$var wire 1 0 ww_devoe $end
$var wire 1 1 ww_devclrn $end
$var wire 1 2 ww_devpor $end
$var wire 1 3 ww_clk $end
$var wire 1 4 ww_reset $end
$var wire 1 5 ww_seg [6] $end
$var wire 1 6 ww_seg [5] $end
$var wire 1 7 ww_seg [4] $end
$var wire 1 8 ww_seg [3] $end
$var wire 1 9 ww_seg [2] $end
$var wire 1 : ww_seg [1] $end
$var wire 1 ; ww_seg [0] $end
$var wire 1 < \~QUARTUS_CREATED_GND~I_combout\ $end
$var wire 1 = \clk~input_o\ $end
$var wire 1 > \clk~inputCLKENA0_outclk\ $end
$var wire 1 ? \Add1~1_sumout\ $end
$var wire 1 @ \reset~input_o\ $end
$var wire 1 A \Add0~5_sumout\ $end
$var wire 1 B \counter_1s[0]~DUPLICATE_q\ $end
$var wire 1 C \Add0~6\ $end
$var wire 1 D \Add0~1_sumout\ $end
$var wire 1 E \counter_1s[1]~DUPLICATE_q\ $end
$var wire 1 F \Add0~2\ $end
$var wire 1 G \Add0~29_sumout\ $end
$var wire 1 H \Add0~30\ $end
$var wire 1 I \Add0~25_sumout\ $end
$var wire 1 J \counter_1s[3]~DUPLICATE_q\ $end
$var wire 1 K \Add0~26\ $end
$var wire 1 L \Add0~21_sumout\ $end
$var wire 1 M \counter_1s[4]~DUPLICATE_q\ $end
$var wire 1 N \Add0~22\ $end
$var wire 1 O \Add0~17_sumout\ $end
$var wire 1 P \counter_1s[5]~DUPLICATE_q\ $end
$var wire 1 Q \Add0~18\ $end
$var wire 1 R \Add0~13_sumout\ $end
$var wire 1 S \counter_1s[6]~DUPLICATE_q\ $end
$var wire 1 T \Add0~14\ $end
$var wire 1 U \Add0~9_sumout\ $end
$var wire 1 V \counter_1s[7]~DUPLICATE_q\ $end
$var wire 1 W \Add0~10\ $end
$var wire 1 X \Add0~53_sumout\ $end
$var wire 1 Y \counter_1s[8]~DUPLICATE_q\ $end
$var wire 1 Z \Add0~54\ $end
$var wire 1 [ \Add0~49_sumout\ $end
$var wire 1 \ \counter_1s[9]~DUPLICATE_q\ $end
$var wire 1 ] \Add0~50\ $end
$var wire 1 ^ \Add0~45_sumout\ $end
$var wire 1 _ \Add0~46\ $end
$var wire 1 ` \Add0~41_sumout\ $end
$var wire 1 a \counter_1s[11]~DUPLICATE_q\ $end
$var wire 1 b \Add0~42\ $end
$var wire 1 c \Add0~37_sumout\ $end
$var wire 1 d \counter_1s[12]~DUPLICATE_q\ $end
$var wire 1 e \Add0~38\ $end
$var wire 1 f \Add0~33_sumout\ $end
$var wire 1 g \counter_1s[13]~DUPLICATE_q\ $end
$var wire 1 h \Add0~34\ $end
$var wire 1 i \Add0~77_sumout\ $end
$var wire 1 j \counter_1s[14]~DUPLICATE_q\ $end
$var wire 1 k \Add0~78\ $end
$var wire 1 l \Add0~73_sumout\ $end
$var wire 1 m \Add0~74\ $end
$var wire 1 n \Add0~69_sumout\ $end
$var wire 1 o \counter_1s[16]~DUPLICATE_q\ $end
$var wire 1 p \Add0~70\ $end
$var wire 1 q \Add0~65_sumout\ $end
$var wire 1 r \Add0~66\ $end
$var wire 1 s \Add0~61_sumout\ $end
$var wire 1 t \Add0~62\ $end
$var wire 1 u \Add0~57_sumout\ $end
$var wire 1 v \Add0~58\ $end
$var wire 1 w \Add0~125_sumout\ $end
$var wire 1 x \Add0~126\ $end
$var wire 1 y \Add0~121_sumout\ $end
$var wire 1 z \Add0~122\ $end
$var wire 1 { \Add0~117_sumout\ $end
$var wire 1 | \Add0~118\ $end
$var wire 1 } \Add0~113_sumout\ $end
$var wire 1 ~ \Add0~114\ $end
$var wire 1 !! \Add0~109_sumout\ $end
$var wire 1 "! \Add0~110\ $end
$var wire 1 #! \Add0~105_sumout\ $end
$var wire 1 $! \Equal0~5_combout\ $end
$var wire 1 %! \Add0~106\ $end
$var wire 1 &! \Add0~101_sumout\ $end
$var wire 1 '! \counter_1s[26]~DUPLICATE_q\ $end
$var wire 1 (! \Add0~102\ $end
$var wire 1 )! \Add0~97_sumout\ $end
$var wire 1 *! \Add0~98\ $end
$var wire 1 +! \Add0~93_sumout\ $end
$var wire 1 ,! \Add0~94\ $end
$var wire 1 -! \Add0~89_sumout\ $end
$var wire 1 .! \Add0~90\ $end
$var wire 1 /! \Add0~85_sumout\ $end
$var wire 1 0! \Add0~86\ $end
$var wire 1 1! \Add0~81_sumout\ $end
$var wire 1 2! \Equal0~4_combout\ $end
$var wire 1 3! \Equal0~0_combout\ $end
$var wire 1 4! \counter_1s[19]~DUPLICATE_q\ $end
$var wire 1 5! \Equal0~3_combout\ $end
$var wire 1 6! \Equal0~2_combout\ $end
$var wire 1 7! \Equal0~1_combout\ $end
$var wire 1 8! \Equal0~6_combout\ $end
$var wire 1 9! \clk_1s~0_combout\ $end
$var wire 1 :! \clk_1s~q\ $end
$var wire 1 ;! \Add1~6\ $end
$var wire 1 <! \Add1~9_sumout\ $end
$var wire 1 =! \digit_counter[2]~DUPLICATE_q\ $end
$var wire 1 >! \Add1~10\ $end
$var wire 1 ?! \Add1~13_sumout\ $end
$var wire 1 @! \digit_counter[10]~DUPLICATE_q\ $end
$var wire 1 A! \Add1~14\ $end
$var wire 1 B! \Add1~33_sumout\ $end
$var wire 1 C! \Add1~34\ $end
$var wire 1 D! \Add1~29_sumout\ $end
$var wire 1 E! \Add1~30\ $end
$var wire 1 F! \Add1~25_sumout\ $end
$var wire 1 G! \Add1~26\ $end
$var wire 1 H! \Add1~21_sumout\ $end
$var wire 1 I! \Add1~22\ $end
$var wire 1 J! \Add1~57_sumout\ $end
$var wire 1 K! \Add1~58\ $end
$var wire 1 L! \Add1~53_sumout\ $end
$var wire 1 M! \Add1~54\ $end
$var wire 1 N! \Add1~49_sumout\ $end
$var wire 1 O! \Add1~50\ $end
$var wire 1 P! \Add1~45_sumout\ $end
$var wire 1 Q! \Add1~46\ $end
$var wire 1 R! \Add1~41_sumout\ $end
$var wire 1 S! \Add1~42\ $end
$var wire 1 T! \Add1~37_sumout\ $end
$var wire 1 U! \Equal2~1_combout\ $end
$var wire 1 V! \Add1~38\ $end
$var wire 1 W! \Add1~81_sumout\ $end
$var wire 1 X! \Add1~82\ $end
$var wire 1 Y! \Add1~77_sumout\ $end
$var wire 1 Z! \Add1~78\ $end
$var wire 1 [! \Add1~73_sumout\ $end
$var wire 1 \! \Add1~74\ $end
$var wire 1 ]! \Add1~69_sumout\ $end
$var wire 1 ^! \Add1~70\ $end
$var wire 1 _! \Add1~65_sumout\ $end
$var wire 1 `! \Add1~66\ $end
$var wire 1 a! \Add1~61_sumout\ $end
$var wire 1 b! \Add1~62\ $end
$var wire 1 c! \Add1~17_sumout\ $end
$var wire 1 d! \Equal2~0_combout\ $end
$var wire 1 e! \Equal2~2_combout\ $end
$var wire 1 f! \Add1~18\ $end
$var wire 1 g! \Add1~125_sumout\ $end
$var wire 1 h! \Add1~126\ $end
$var wire 1 i! \Add1~121_sumout\ $end
$var wire 1 j! \Add1~122\ $end
$var wire 1 k! \Add1~117_sumout\ $end
$var wire 1 l! \digit_counter[23]~DUPLICATE_q\ $end
$var wire 1 m! \Add1~118\ $end
$var wire 1 n! \Add1~113_sumout\ $end
$var wire 1 o! \Add1~114\ $end
$var wire 1 p! \Add1~109_sumout\ $end
$var wire 1 q! \Add1~110\ $end
$var wire 1 r! \Add1~105_sumout\ $end
$var wire 1 s! \Add1~106\ $end
$var wire 1 t! \Add1~101_sumout\ $end
$var wire 1 u! \Add1~102\ $end
$var wire 1 v! \Add1~97_sumout\ $end
$var wire 1 w! \Add1~98\ $end
$var wire 1 x! \Add1~93_sumout\ $end
$var wire 1 y! \Add1~94\ $end
$var wire 1 z! \Add1~89_sumout\ $end
$var wire 1 {! \Add1~90\ $end
$var wire 1 |! \Add1~85_sumout\ $end
$var wire 1 }! \Equal2~3_combout\ $end
$var wire 1 ~! \Equal2~4_combout\ $end
$var wire 1 !" \Equal2~5_combout\ $end
$var wire 1 "" \Equal11~0_combout\ $end
$var wire 1 #" \Add1~2\ $end
$var wire 1 $" \Add1~5_sumout\ $end
$var wire 1 %" \WideOr5~combout\ $end
$var wire 1 &" \WideOr4~combout\ $end
$var wire 1 '" \WideNor0~0_combout\ $end
$var wire 1 (" \WideOr2~combout\ $end
$var wire 1 )" \int_to_7seg~0_combout\ $end
$var wire 1 *" \WideOr1~combout\ $end
$var wire 1 +" \WideOr0~combout\ $end
$var wire 1 ," digit_counter [31] $end
$var wire 1 -" digit_counter [30] $end
$var wire 1 ." digit_counter [29] $end
$var wire 1 /" digit_counter [28] $end
$var wire 1 0" digit_counter [27] $end
$var wire 1 1" digit_counter [26] $end
$var wire 1 2" digit_counter [25] $end
$var wire 1 3" digit_counter [24] $end
$var wire 1 4" digit_counter [23] $end
$var wire 1 5" digit_counter [22] $end
$var wire 1 6" digit_counter [21] $end
$var wire 1 7" digit_counter [20] $end
$var wire 1 8" digit_counter [19] $end
$var wire 1 9" digit_counter [18] $end
$var wire 1 :" digit_counter [17] $end
$var wire 1 ;" digit_counter [16] $end
$var wire 1 <" digit_counter [15] $end
$var wire 1 =" digit_counter [14] $end
$var wire 1 >" digit_counter [13] $end
$var wire 1 ?" digit_counter [12] $end
$var wire 1 @" digit_counter [11] $end
$var wire 1 A" digit_counter [10] $end
$var wire 1 B" digit_counter [9] $end
$var wire 1 C" digit_counter [8] $end
$var wire 1 D" digit_counter [7] $end
$var wire 1 E" digit_counter [6] $end
$var wire 1 F" digit_counter [5] $end
$var wire 1 G" digit_counter [4] $end
$var wire 1 H" digit_counter [3] $end
$var wire 1 I" digit_counter [2] $end
$var wire 1 J" digit_counter [1] $end
$var wire 1 K" digit_counter [0] $end
$var wire 1 L" counter_1s [31] $end
$var wire 1 M" counter_1s [30] $end
$var wire 1 N" counter_1s [29] $end
$var wire 1 O" counter_1s [28] $end
$var wire 1 P" counter_1s [27] $end
$var wire 1 Q" counter_1s [26] $end
$var wire 1 R" counter_1s [25] $end
$var wire 1 S" counter_1s [24] $end
$var wire 1 T" counter_1s [23] $end
$var wire 1 U" counter_1s [22] $end
$var wire 1 V" counter_1s [21] $end
$var wire 1 W" counter_1s [20] $end
$var wire 1 X" counter_1s [19] $end
$var wire 1 Y" counter_1s [18] $end
$var wire 1 Z" counter_1s [17] $end
$var wire 1 [" counter_1s [16] $end
$var wire 1 \" counter_1s [15] $end
$var wire 1 ]" counter_1s [14] $end
$var wire 1 ^" counter_1s [13] $end
$var wire 1 _" counter_1s [12] $end
$var wire 1 `" counter_1s [11] $end
$var wire 1 a" counter_1s [10] $end
$var wire 1 b" counter_1s [9] $end
$var wire 1 c" counter_1s [8] $end
$var wire 1 d" counter_1s [7] $end
$var wire 1 e" counter_1s [6] $end
$var wire 1 f" counter_1s [5] $end
$var wire 1 g" counter_1s [4] $end
$var wire 1 h" counter_1s [3] $end
$var wire 1 i" counter_1s [2] $end
$var wire 1 j" counter_1s [1] $end
$var wire 1 k" counter_1s [0] $end
$var wire 1 l" ALT_INV_counter_1s [31] $end
$var wire 1 m" ALT_INV_counter_1s [30] $end
$var wire 1 n" ALT_INV_counter_1s [29] $end
$var wire 1 o" ALT_INV_counter_1s [28] $end
$var wire 1 p" ALT_INV_counter_1s [27] $end
$var wire 1 q" ALT_INV_counter_1s [26] $end
$var wire 1 r" ALT_INV_counter_1s [25] $end
$var wire 1 s" ALT_INV_counter_1s [24] $end
$var wire 1 t" ALT_INV_counter_1s [23] $end
$var wire 1 u" ALT_INV_counter_1s [22] $end
$var wire 1 v" ALT_INV_counter_1s [21] $end
$var wire 1 w" ALT_INV_counter_1s [20] $end
$var wire 1 x" ALT_INV_counter_1s [19] $end
$var wire 1 y" ALT_INV_counter_1s [18] $end
$var wire 1 z" ALT_INV_counter_1s [17] $end
$var wire 1 {" ALT_INV_counter_1s [16] $end
$var wire 1 |" ALT_INV_counter_1s [15] $end
$var wire 1 }" ALT_INV_counter_1s [14] $end
$var wire 1 ~" ALT_INV_counter_1s [13] $end
$var wire 1 !# ALT_INV_counter_1s [12] $end
$var wire 1 "# ALT_INV_counter_1s [11] $end
$var wire 1 ## ALT_INV_counter_1s [10] $end
$var wire 1 $# ALT_INV_counter_1s [9] $end
$var wire 1 %# ALT_INV_counter_1s [8] $end
$var wire 1 &# ALT_INV_counter_1s [7] $end
$var wire 1 '# ALT_INV_counter_1s [6] $end
$var wire 1 (# ALT_INV_counter_1s [5] $end
$var wire 1 )# ALT_INV_counter_1s [4] $end
$var wire 1 *# ALT_INV_counter_1s [3] $end
$var wire 1 +# ALT_INV_counter_1s [2] $end
$var wire 1 ,# ALT_INV_counter_1s [1] $end
$var wire 1 -# ALT_INV_counter_1s [0] $end
$var wire 1 .# ALT_INV_digit_counter [31] $end
$var wire 1 /# ALT_INV_digit_counter [30] $end
$var wire 1 0# ALT_INV_digit_counter [29] $end
$var wire 1 1# ALT_INV_digit_counter [28] $end
$var wire 1 2# ALT_INV_digit_counter [27] $end
$var wire 1 3# ALT_INV_digit_counter [26] $end
$var wire 1 4# ALT_INV_digit_counter [25] $end
$var wire 1 5# ALT_INV_digit_counter [24] $end
$var wire 1 6# ALT_INV_digit_counter [23] $end
$var wire 1 7# ALT_INV_digit_counter [22] $end
$var wire 1 8# ALT_INV_digit_counter [21] $end
$var wire 1 9# ALT_INV_digit_counter [20] $end
$var wire 1 :# ALT_INV_digit_counter [19] $end
$var wire 1 ;# ALT_INV_digit_counter [18] $end
$var wire 1 <# ALT_INV_digit_counter [17] $end
$var wire 1 =# ALT_INV_digit_counter [16] $end
$var wire 1 ># ALT_INV_digit_counter [15] $end
$var wire 1 ?# ALT_INV_digit_counter [14] $end
$var wire 1 @# ALT_INV_digit_counter [13] $end
$var wire 1 A# ALT_INV_digit_counter [12] $end
$var wire 1 B# ALT_INV_digit_counter [11] $end
$var wire 1 C# ALT_INV_digit_counter [10] $end
$var wire 1 D# ALT_INV_digit_counter [9] $end
$var wire 1 E# ALT_INV_digit_counter [8] $end
$var wire 1 F# ALT_INV_digit_counter [7] $end
$var wire 1 G# ALT_INV_digit_counter [6] $end
$var wire 1 H# ALT_INV_digit_counter [5] $end
$var wire 1 I# ALT_INV_digit_counter [4] $end
$var wire 1 J# ALT_INV_digit_counter [3] $end
$var wire 1 K# ALT_INV_digit_counter [2] $end
$var wire 1 L# ALT_INV_digit_counter [1] $end
$var wire 1 M# ALT_INV_digit_counter [0] $end
$var wire 1 N# \ALT_INV_counter_1s[26]~DUPLICATE_q\ $end
$var wire 1 O# \ALT_INV_counter_1s[14]~DUPLICATE_q\ $end
$var wire 1 P# \ALT_INV_counter_1s[16]~DUPLICATE_q\ $end
$var wire 1 Q# \ALT_INV_counter_1s[19]~DUPLICATE_q\ $end
$var wire 1 R# \ALT_INV_counter_1s[8]~DUPLICATE_q\ $end
$var wire 1 S# \ALT_INV_counter_1s[9]~DUPLICATE_q\ $end
$var wire 1 T# \ALT_INV_counter_1s[11]~DUPLICATE_q\ $end
$var wire 1 U# \ALT_INV_counter_1s[12]~DUPLICATE_q\ $end
$var wire 1 V# \ALT_INV_counter_1s[13]~DUPLICATE_q\ $end
$var wire 1 W# \ALT_INV_counter_1s[3]~DUPLICATE_q\ $end
$var wire 1 X# \ALT_INV_counter_1s[4]~DUPLICATE_q\ $end
$var wire 1 Y# \ALT_INV_counter_1s[5]~DUPLICATE_q\ $end
$var wire 1 Z# \ALT_INV_counter_1s[6]~DUPLICATE_q\ $end
$var wire 1 [# \ALT_INV_counter_1s[7]~DUPLICATE_q\ $end
$var wire 1 \# \ALT_INV_counter_1s[0]~DUPLICATE_q\ $end
$var wire 1 ]# \ALT_INV_counter_1s[1]~DUPLICATE_q\ $end
$var wire 1 ^# \ALT_INV_digit_counter[23]~DUPLICATE_q\ $end
$var wire 1 _# \ALT_INV_digit_counter[10]~DUPLICATE_q\ $end
$var wire 1 `# \ALT_INV_digit_counter[2]~DUPLICATE_q\ $end
$var wire 1 a# \ALT_INV_reset~input_o\ $end
$var wire 1 b# \ALT_INV_Equal0~6_combout\ $end
$var wire 1 c# \ALT_INV_Equal0~5_combout\ $end
$var wire 1 d# \ALT_INV_Equal0~4_combout\ $end
$var wire 1 e# \ALT_INV_Equal0~3_combout\ $end
$var wire 1 f# \ALT_INV_Equal0~2_combout\ $end
$var wire 1 g# \ALT_INV_Equal0~1_combout\ $end
$var wire 1 h# \ALT_INV_Equal0~0_combout\ $end
$var wire 1 i# \ALT_INV_clk_1s~q\ $end
$var wire 1 j# \ALT_INV_Equal2~5_combout\ $end
$var wire 1 k# \ALT_INV_Equal2~4_combout\ $end
$var wire 1 l# \ALT_INV_Equal2~3_combout\ $end
$var wire 1 m# \ALT_INV_Equal2~2_combout\ $end
$var wire 1 n# \ALT_INV_Equal2~1_combout\ $end
$var wire 1 o# \ALT_INV_Equal2~0_combout\ $end
$upscope $end
$upscope $end
$enddefinitions $end
#0
$dumpvars
0!
0"
0*
1+
x,
1-
1.
1/
10
11
12
03
04
x<
0=
0>
1?
0@
1A
0B
0C
0D
0E
0F
0G
0H
0I
0J
0K
0L
0M
0N
0O
0P
0Q
0R
0S
0T
0U
0V
0W
0X
0Y
0Z
0[
0\
0]
0^
0_
0`
0a
0b
0c
0d
0e
0f
0g
0h
0i
0j
0k
0l
0m
0n
0o
0p
0q
0r
0s
0t
0u
0v
0w
0x
0y
0z
0{
0|
0}
0~
0!!
0"!
0#!
0$!
0%!
0&!
0'!
0(!
0)!
0*!
0+!
0,!
0-!
0.!
0/!
00!
01!
12!
03!
04!
05!
06!
07!
08!
09!
0:!
0;!
0<!
0=!
0>!
0?!
0@!
0A!
0B!
0C!
0D!
0E!
0F!
0G!
0H!
0I!
0J!
0K!
0L!
0M!
0N!
0O!
0P!
0Q!
0R!
0S!
0T!
1U!
0V!
0W!
0X!
0Y!
0Z!
0[!
0\!
0]!
0^!
0_!
0`!
0a!
0b!
0c!
1d!
1e!
0f!
0g!
0h!
0i!
0j!
0k!
0l!
0m!
0n!
0o!
0p!
0q!
0r!
0s!
0t!
0u!
0v!
0w!
0x!
0y!
0z!
0{!
0|!
1}!
1~!
1!"
0""
0#"
0$"
1%"
0&"
0'"
0("
0)"
0*"
0+"
1N#
1O#
1P#
1Q#
1R#
1S#
1T#
1U#
1V#
1W#
1X#
1Y#
1Z#
1[#
1\#
1]#
1^#
1_#
1`#
1a#
1b#
1c#
0d#
1e#
1f#
1g#
1h#
1i#
0j#
0k#
0l#
0m#
0n#
0o#
05
06
07
08
09
0:
1;
0,"
0-"
0."
0/"
00"
01"
02"
03"
04"
05"
06"
07"
08"
09"
0:"
0;"
0<"
0="
0>"
0?"
0@"
0A"
0B"
0C"
0D"
0E"
0F"
0G"
0H"
0I"
0J"
0K"
0L"
0M"
0N"
0O"
0P"
0Q"
0R"
0S"
0T"
0U"
0V"
0W"
0X"
0Y"
0Z"
0["
0\"
0]"
0^"
0_"
0`"
0a"
0b"
0c"
0d"
0e"
0f"
0g"
0h"
0i"
0j"
0k"
1l"
1m"
1n"
1o"
1p"
1q"
1r"
1s"
1t"
1u"
1v"
1w"
1x"
1y"
1z"
1{"
1|"
1}"
1~"
1!#
1"#
1##
1$#
1%#
1&#
1'#
1(#
1)#
1*#
1+#
1,#
1-#
1.#
1/#
10#
11#
12#
13#
14#
15#
16#
17#
18#
19#
1:#
1;#
1<#
1=#
1>#
1?#
1@#
1A#
1B#
1C#
1D#
1E#
1F#
1G#
1H#
1I#
1J#
1K#
1L#
1M#
0#
0$
0%
0&
0'
0(
1)
$end
#10000
1!
13
1=
1>
1B
1k"
0-#
0\#
0A
1C
1D
#20000
0!
03
0=
0>
#30000
1!
13
1=
1>
0B
1E
0k"
1j"
0,#
1-#
0]#
1\#
1A
0C
0D
1F
1G
1D
0F
0G
#40000
0!
03
0=
0>
#50000
1!
13
1=
1>
1B
1k"
0-#
0\#
0A
1C
13!
0h#
0D
1F
1G
#60000
0!
03
0=
0>
#70000
1!
13
1=
1>
0B
0E
1i"
0k"
0j"
1,#
1-#
0+#
1]#
1\#
1A
0C
1D
0F
0G
1H
03!
1h#
1I
1G
0H
0D
0I
#80000
0!
03
0=
0>
#90000
1!
13
1=
1>
1B
1k"
0-#
0\#
0A
1C
1D
#100000
0!
03
0=
0>
#110000
1!
13
1=
1>
0B
1E
0k"
1j"
0,#
1-#
0]#
1\#
1A
0C
0D
1F
0G
1H
1D
0F
1G
0H
1I
0I
#120000
0!
03
0=
0>
#130000
1!
13
1=
1>
1B
1k"
0-#
0\#
0A
1C
13!
0h#
0D
1F
0G
1H
1I
#140000
0!
03
0=
0>
#150000
1!
13
1=
1>
0B
0E
0i"
1J
0k"
0j"
1h"
0*#
1,#
1-#
0W#
1+#
1]#
1\#
1A
0C
1D
0F
1G
0H
0I
1K
03!
1h#
1L
1I
0K
0G
0D
0L
#160000
0!
03
0=
0>
#170000
1!
13
1=
1>
1B
1k"
0-#
0\#
0A
1C
1D
#180000
0!
03
0=
0>
#190000
1!
13
1=
1>
0B
1E
0k"
1j"
0,#
1-#
0]#
1\#
1A
0C
0D
1F
1G
1D
0F
0G
#200000
0!
03
0=
0>
#210000
1!
13
1=
1>
1B
1k"
0-#
0\#
0A
1C
13!
0h#
0D
1F
1G
#220000
0!
03
0=
0>
#230000
1!
13
1=
1>
0B
0E
1i"
0k"
0j"
1,#
1-#
0+#
1]#
1\#
1A
0C
1D
0F
0G
1H
03!
1h#
0I
1K
1G
0H
0D
1I
0K
1L
0L
#240000
0!
03
0=
0>
#250000
1!
13
1=
1>
1B
1k"
0-#
0\#
0A
1C
1D
#260000
0!
03
0=
0>
#270000
1!
13
1=
1>
0B
1E
0k"
1j"
0,#
1-#
0]#
1\#
1A
0C
0D
1F
0G
1H
1D
0F
1G
0H
0I
1K
1L
1I
0K
0L
#280000
0!
03
0=
0>
#290000
1!
13
1=
1>
1B
1k"
0-#
0\#
0A
1C
13!
0h#
0D
1F
0G
1H
0I
1K
1L
#300000
0!
03
0=
0>
#310000
1!
13
1=
1>
0B
0E
0i"
0J
1M
0k"
0j"
1g"
0h"
1*#
0)#
1,#
1-#
0X#
1W#
1+#
1]#
1\#
1A
0C
1D
0F
1G
0H
1I
0K
0L
1N
03!
1h#
1O
1L
0N
0I
0G
0D
0O
#320000
0!
03
0=
0>
#330000
1!
13
1=
1>
1B
1k"
0-#
0\#
0A
1C
1D
#340000
0!
03
0=
0>
#350000
1!
13
1=
1>
0B
1E
0k"
1j"
0,#
1-#
0]#
1\#
1A
0C
0D
1F
1G
1D
0F
0G
#360000
0!
03
0=
0>
#370000
1!
13
1=
1>
1B
1k"
0-#
0\#
0A
1C
13!
0h#
0D
1F
1G
#380000
0!
03
0=
0>
#390000
1!
13
1=
1>
0B
0E
1i"
0k"
0j"
1,#
1-#
0+#
1]#
1\#
1A
0C
1D
0F
0G
1H
03!
1h#
1I
1G
0H
0D
0I
#400000
0!
03
0=
0>
#410000
1!
13
1=
1>
1B
1k"
0-#
0\#
0A
1C
1D
#420000
0!
03
0=
0>
#430000
1!
13
1=
1>
0B
1E
0k"
1j"
0,#
1-#
0]#
1\#
1A
0C
0D
1F
0G
1H
1D
0F
1G
0H
1I
0I
#440000
0!
03
0=
0>
#450000
1!
13
1=
1>
1B
1k"
0-#
0\#
0A
1C
13!
0h#
0D
1F
0G
1H
1I
#460000
0!
03
0=
0>
#470000
1!
13
1=
1>
0B
0E
0i"
1J
0k"
0j"
1h"
0*#
1,#
1-#
0W#
1+#
1]#
1\#
1A
0C
1D
0F
1G
0H
0I
1K
03!
1h#
0L
1N
1I
0K
0G
0D
1L
0N
1O
0O
#480000
0!
03
0=
0>
#490000
1!
13
1=
1>
1B
1k"
0-#
0\#
0A
1C
1D
#500000
0!
03
0=
0>
#510000
1!
13
1=
1>
0B
1E
0k"
1j"
0,#
1-#
0]#
1\#
1A
0C
0D
1F
1G
1D
0F
0G
#520000
0!
03
0=
0>
#530000
1!
13
1=
1>
1B
1k"
0-#
0\#
0A
1C
13!
0h#
0D
1F
1G
#540000
0!
03
0=
0>
#550000
1!
13
1=
1>
0B
0E
1i"
0k"
0j"
1,#
1-#
0+#
1]#
1\#
1A
0C
1D
0F
0G
1H
03!
1h#
0I
1K
1G
0H
0D
1I
0K
0L
1N
1O
1L
0N
0O
#560000
0!
03
0=
0>
#570000
1!
13
1=
1>
1B
1k"
0-#
0\#
0A
1C
1D
#580000
0!
03
0=
0>
#590000
1!
13
1=
1>
0B
1E
0k"
1j"
0,#
1-#
0]#
1\#
1A
0C
0D
1F
0G
1H
1D
0F
1G
0H
0I
1K
0L
1N
1I
0K
1L
0N
1O
0O
#600000
0!
03
0=
0>
#610000
1!
13
1=
1>
1B
1k"
0-#
0\#
0A
1C
13!
0h#
0D
1F
0G
1H
0I
1K
0L
1N
1O
#620000
0!
03
0=
0>
#630000
1!
13
1=
1>
0B
0E
0i"
0J
0M
1P
0k"
0j"
1f"
0g"
0h"
1*#
1)#
0(#
1,#
1-#
0Y#
1X#
1W#
1+#
1]#
1\#
1A
0C
1D
0F
1G
0H
1I
0K
1L
0N
0O
1Q
03!
1h#
1R
1O
0Q
0L
0I
0G
0D
0R
#640000
0!
03
0=
0>
#650000
1!
13
1=
1>
1B
1k"
0-#
0\#
0A
1C
1D
#660000
0!
03
0=
0>
#670000
1!
13
1=
1>
0B
1E
0k"
1j"
0,#
1-#
0]#
1\#
1A
0C
0D
1F
1G
1D
0F
0G
#680000
0!
03
0=
0>
#690000
1!
13
1=
1>
1B
1k"
0-#
0\#
0A
1C
13!
0h#
0D
1F
1G
#700000
0!
03
0=
0>
#710000
1!
13
1=
1>
0B
0E
1i"
0k"
0j"
1,#
1-#
0+#
1]#
1\#
1A
0C
1D
0F
0G
1H
03!
1h#
1I
1G
0H
0D
0I
#720000
0!
03
0=
0>
#730000
1!
13
1=
1>
1B
1k"
0-#
0\#
0A
1C
1D
#740000
0!
03
0=
0>
#750000
1!
13
1=
1>
0B
1E
0k"
1j"
0,#
1-#
0]#
1\#
1A
0C
0D
1F
0G
1H
1D
0F
1G
0H
1I
0I
#760000
0!
03
0=
0>
#770000
1!
13
1=
1>
1B
1k"
0-#
0\#
0A
1C
13!
0h#
0D
1F
0G
1H
1I
#780000
0!
03
0=
0>
#790000
1!
13
1=
1>
0B
0E
0i"
1J
0k"
0j"
1h"
0*#
1,#
1-#
0W#
1+#
1]#
1\#
1A
0C
1D
0F
1G
0H
0I
1K
03!
1h#
1L
1I
0K
0G
0D
0L
#800000
0!
03
0=
0>
#810000
1!
13
1=
1>
1B
1k"
0-#
0\#
0A
1C
1D
#820000
0!
03
0=
0>
#830000
1!
13
1=
1>
0B
1E
0k"
1j"
0,#
1-#
0]#
1\#
1A
0C
0D
1F
1G
1D
0F
0G
#840000
0!
03
0=
0>
#850000
1!
13
1=
1>
1B
1k"
0-#
0\#
0A
1C
13!
0h#
0D
1F
1G
#860000
0!
03
0=
0>
#870000
1!
13
1=
1>
0B
0E
1i"
0k"
0j"
1,#
1-#
0+#
1]#
1\#
1A
0C
1D
0F
0G
1H
03!
1h#
0I
1K
1G
0H
0D
1I
0K
1L
0L
#880000
0!
03
0=
0>
#890000
1!
13
1=
1>
1B
1k"
0-#
0\#
0A
1C
1D
#900000
0!
03
0=
0>
#910000
1!
13
1=
1>
0B
1E
0k"
1j"
0,#
1-#
0]#
1\#
1A
0C
0D
1F
0G
1H
1D
0F
1G
0H
0I
1K
1L
1I
0K
0L
#920000
0!
03
0=
0>
#930000
1!
13
1=
1>
1B
1k"
0-#
0\#
0A
1C
13!
0h#
0D
1F
0G
1H
0I
1K
1L
#940000
0!
03
0=
0>
#950000
1!
13
1=
1>
0B
0E
0i"
0J
1M
0k"
0j"
1g"
0h"
1*#
0)#
1,#
1-#
0X#
1W#
1+#
1]#
1\#
1A
0C
1D
0F
1G
0H
1I
0K
0L
1N
03!
1h#
0O
1Q
1L
0N
0I
0G
0D
1O
0Q
1R
0R
#960000
0!
03
0=
0>
#970000
1!
13
1=
1>
1B
1k"
0-#
0\#
0A
1C
1D
#980000
0!
03
0=
0>
#990000
1!
13
1=
1>
0B
1E
0k"
1j"
0,#
1-#
0]#
1\#
1A
0C
0D
1F
1G
1D
0F
0G
