Aulas 4 e 5/parte1/parte1/simulation/qsim/parte1.msim.vcd
$comment
	File created using the following command:
		vcd file parte1.msim.vcd -direction
$end
$date
	Mon Sep 16 17:10:35 2024
$end
$version
	ModelSim Version 10.5b
$end
$timescale
	1ps
$end

$scope module contador_vhd_vec_tst $end
$var wire 1 ! Clear $end
$var wire 1 " CLK $end
$var wire 1 # Enable $end
$var wire 1 $ H0 $end
$var wire 1 % H1 $end
$var wire 1 & H2 $end
$var wire 1 ' H3 $end
$var wire 1 ( H4 $end
$var wire 1 ) H5 $end
$var wire 1 * H6 $end
$var wire 1 + H7 $end
$var wire 1 , H8 $end
$var wire 1 - H9 $end
$var wire 1 . H10 $end
$var wire 1 / H11 $end
$var wire 1 0 H12 $end
$var wire 1 1 H13 $end
$var wire 1 2 Q0 $end
$var wire 1 3 Q1 $end
$var wire 1 4 Q2 $end
$var wire 1 5 Q3 $end
$var wire 1 6 Q4 $end
$var wire 1 7 Q5 $end
$var wire 1 8 Q6 $end
$var wire 1 9 Q7 $end

$scope module i1 $end
$var wire 1 : gnd $end
$var wire 1 ; vcc $end
$var wire 1 < unknown $end
$var wire 1 = devoe $end
$var wire 1 > devclrn $end
$var wire 1 ? devpor $end
$var wire 1 @ ww_devoe $end
$var wire 1 A ww_devclrn $end
$var wire 1 B ww_devpor $end
$var wire 1 C ww_H0 $end
$var wire 1 D ww_CLK $end
$var wire 1 E ww_Enable $end
$var wire 1 F ww_Clear $end
$var wire 1 G ww_H1 $end
$var wire 1 H ww_H2 $end
$var wire 1 I ww_H3 $end
$var wire 1 J ww_H4 $end
$var wire 1 K ww_H5 $end
$var wire 1 L ww_H7 $end
$var wire 1 M ww_H6 $end
$var wire 1 N ww_H8 $end
$var wire 1 O ww_H9 $end
$var wire 1 P ww_H10 $end
$var wire 1 Q ww_H11 $end
$var wire 1 R ww_H12 $end
$var wire 1 S ww_H13 $end
$var wire 1 T ww_Q7 $end
$var wire 1 U ww_Q6 $end
$var wire 1 V ww_Q5 $end
$var wire 1 W ww_Q4 $end
$var wire 1 X ww_Q3 $end
$var wire 1 Y ww_Q2 $end
$var wire 1 Z ww_Q1 $end
$var wire 1 [ ww_Q0 $end
$var wire 1 \ \~QUARTUS_CREATED_GND~I_combout\ $end
$var wire 1 ] \CLK~input_o\ $end
$var wire 1 ^ \CLK~inputCLKENA0_outclk\ $end
$var wire 1 _ \Enable~input_o\ $end
$var wire 1 ` \inst|Q_int~0_combout\ $end
$var wire 1 a \Clear~input_o\ $end
$var wire 1 b \inst|Q_int~q\ $end
$var wire 1 c \inst1|Q_int~0_combout\ $end
$var wire 1 d \inst1|Q_int~q\ $end
$var wire 1 e \inst2|Q_int~0_combout\ $end
$var wire 1 f \inst2|Q_int~q\ $end
$var wire 1 g \inst3|Q_int~0_combout\ $end
$var wire 1 h \inst3|Q_int~q\ $end
$var wire 1 i \inst90|inst27~0_combout\ $end
$var wire 1 j \inst90|inst30~0_combout\ $end
$var wire 1 k \inst90|inst33~0_combout\ $end
$var wire 1 l \inst90|inst36~0_combout\ $end
$var wire 1 m \inst90|inst042~0_combout\ $end
$var wire 1 n \inst90|inst51~0_combout\ $end
$var wire 1 o \inst90|inst39~0_combout\ $end
$var wire 1 p \inst4|Q_int~0_combout\ $end
$var wire 1 q \inst4|Q_int~q\ $end
$var wire 1 r \inst8~combout\ $end
$var wire 1 s \inst55|Q_int~0_combout\ $end
$var wire 1 t \inst55|Q_int~q\ $end
$var wire 1 u \inst56|Q_int~0_combout\ $end
$var wire 1 v \inst56|Q_int~q\ $end
$var wire 1 w \inst57|Q_int~0_combout\ $end
$var wire 1 x \inst57|Q_int~q\ $end
$var wire 1 y \inst91|inst27~0_combout\ $end
$var wire 1 z \inst91|inst30~0_combout\ $end
$var wire 1 { \inst91|inst33~0_combout\ $end
$var wire 1 | \inst91|inst36~0_combout\ $end
$var wire 1 } \inst91|inst042~0_combout\ $end
$var wire 1 ~ \inst91|inst51~0_combout\ $end
$var wire 1 !! \inst91|inst39~0_combout\ $end
$var wire 1 "! \inst1|ALT_INV_Q_int~q\ $end
$var wire 1 #! \inst3|ALT_INV_Q_int~q\ $end
$var wire 1 $! \inst|ALT_INV_Q_int~q\ $end
$var wire 1 %! \ALT_INV_Clear~input_o\ $end
$var wire 1 &! \ALT_INV_Enable~input_o\ $end
$var wire 1 '! \ALT_INV_inst8~combout\ $end
$var wire 1 (! \inst91|ALT_INV_inst39~0_combout\ $end
$var wire 1 )! \inst91|ALT_INV_inst51~0_combout\ $end
$var wire 1 *! \inst91|ALT_INV_inst042~0_combout\ $end
$var wire 1 +! \inst91|ALT_INV_inst36~0_combout\ $end
$var wire 1 ,! \inst91|ALT_INV_inst33~0_combout\ $end
$var wire 1 -! \inst91|ALT_INV_inst30~0_combout\ $end
$var wire 1 .! \inst91|ALT_INV_inst27~0_combout\ $end
$var wire 1 /! \inst56|ALT_INV_Q_int~q\ $end
$var wire 1 0! \inst4|ALT_INV_Q_int~q\ $end
$var wire 1 1! \inst57|ALT_INV_Q_int~q\ $end
$var wire 1 2! \inst55|ALT_INV_Q_int~q\ $end
$var wire 1 3! \inst90|ALT_INV_inst39~0_combout\ $end
$var wire 1 4! \inst90|ALT_INV_inst51~0_combout\ $end
$var wire 1 5! \inst90|ALT_INV_inst042~0_combout\ $end
$var wire 1 6! \inst90|ALT_INV_inst36~0_combout\ $end
$var wire 1 7! \inst90|ALT_INV_inst33~0_combout\ $end
$var wire 1 8! \inst90|ALT_INV_inst30~0_combout\ $end
$var wire 1 9! \inst90|ALT_INV_inst27~0_combout\ $end
$var wire 1 :! \inst2|ALT_INV_Q_int~q\ $end
$upscope $end
$upscope $end
$enddefinitions $end
#0
$dumpvars
0!
0"
1#
0$
0%
0&
0'
0(
0)
0*
1+
0,
0-
0.
0/
00
11
02
03
04
05
06
07
08
09
0:
1;
x<
1=
1>
1?
1@
1A
1B
0C
0D
1E
0F
0G
0H
0I
0J
0K
1L
0M
0N
0O
0P
0Q
0R
1S
0T
0U
0V
0W
0X
0Y
0Z
0[
x\
0]
0^
1_
1`
0a
0b
0c
0d
0e
0f
0g
0h
1i
1j
1k
1l
1m
1n
0o
0p
0q
0r
0s
0t
0u
0v
0w
0x
1y
1z
1{
1|
1}
1~
0!!
1"!
1#!
1$!
1%!
0&!
1'!
1(!
0)!
0*!
0+!
0,!
0-!
0.!
1/!
10!
11!
12!
13!
04!
05!
06!
07!
08!
09!
1:!
$end
#2500
1"
0#
1D
0E
0_
1]
1^
1&!
0`
1b
0$!
1`
0i
0l
0m
0n
14!
15!
16!
19!
1[
12
1C
1I
1J
1K
1$
1'
1(
1)
#5000
0"
1#
0D
1E
1_
0]
0^
0&!
0`
1c
#7500
1"
0#
1D
0E
0_
1]
1^
1&!
1`
0c
0b
1d
0"!
1$!
0`
1c
1i
0k
1l
1m
1o
03!
05!
06!
17!
09!
1Z
0[
13
02
0C
1H
0I
0J
0L
0$
1&
0'
0(
0+
#10000
0"
1#
0D
1E
1_
0]
0^
0&!
1`
#12500
1"
0#
1D
0E
0_
1]
1^
1&!
0`
1b
0$!
1`
1k
0m
15!
07!
1[
12
0H
1J
0&
1(
#15000
0"
1#
0D
1E
1_
0]
0^
0&!
0`
0c
1e
#17500
1"
0#
1D
0E
0_
1]
1^
1&!
1`
1c
0e
0b
0d
1f
0:!
1"!
1$!
0`
0c
1e
0i
0l
1n
04!
16!
19!
1Y
0Z
0[
14
03
02
1C
1I
0K
1$
1'
0)
#20000
0"
1#
0D
1E
1_
0]
0^
0&!
1`
#22500
1"
0#
1D
0E
0_
1]
1^
1&!
0`
1b
0$!
1`
1i
0j
1l
06!
18!
09!
1[
12
0C
1G
0I
0$
1%
0'
#25000
0"
1#
0D
1E
1_
0]
0^
0&!
0`
1c
#27500
1"
0#
1D
0E
0_
1]
1^
1&!
1`
0c
0b
1d
0"!
1$!
0`
1c
1m
05!
1Z
0[
13
02
0J
0(
#30000
0"
1#
0D
1E
1_
0]
0^
0&!
1`
#32500
1"
0#
1D
0E
0_
1]
1^
1&!
0`
1b
0$!
1`
1j
0l
0m
0n
0o
13!
14!
15!
16!
08!
1[
12
0G
1I
1J
1K
1L
0%
1'
1(
1)
1+
#35000
0"
1#
0D
1E
1_
0]
0^
0&!
0`
0c
0e
1g
#37500
1"
0#
1D
0E
0_
1]
1^
1&!
1`
1c
1e
0g
0b
0d
0f
1h
0#!
1:!
1"!
1$!
0`
0c
0e
1g
1l
1m
1n
1o
03!
04!
05!
06!
1X
0Y
0Z
0[
15
04
03
02
0I
0J
0K
0L
0'
0(
0)
0+
#40000
0"
1#
0D
1E
1_
0]
0^
0&!
1`
#42500
1"
0#
1D
0E
0_
1]
1^
1&!
0`
1b
0$!
1`
0m
15!
1[
12
1J
1(
#45000
0"
1#
0D
1E
1_
0]
0^
0&!
0`
1c
#47500
1"
0#
1D
0E
0_
1]
1^
1&!
1`
0c
0b
1d
0"!
1$!
0`
1c
0l
1m
05!
16!
1Z
0[
13
02
1I
0J
1'
0(
#50000
0"
1#
0D
1E
1_
0]
0^
0&!
1`
#52500
1"
0#
1D
0E
0_
1]
1^
1&!
0`
1b
0$!
1`
0i
0j
1l
06!
18!
19!
1[
12
1C
1G
0I
1$
1%
0'
#55000
0"
1#
0D
1E
1_
0]
0^
0&!
0`
0c
1e
#57500
1"
0#
1D
0E
0_
1]
1^
1&!
1`
1c
0e
0b
0d
1f
0:!
1"!
1$!
0`
0c
1e
1i
0k
0o
13!
17!
09!
1Y
0Z
0[
14
03
02
0C
1H
1L
0$
1&
1+
#60000
0"
1#
0D
1E
1_
0]
0^
0&!
1`
#62500
1"
0#
1D
0E
0_
1]
1^
1&!
0`
1b
0$!
1`
0i
1j
1k
0n
1o
03!
14!
07!
08!
19!
1[
12
1C
0G
0H
1K
0L
1$
0%
0&
1)
0+
#65000
0"
1#
0D
1E
1_
0]
0^
0&!
0`
1c
#67500
1"
0#
1D
0E
0_
1]
1^
1&!
1`
0c
0b
1d
0"!
1$!
0`
1c
1i
0j
0k
1n
04!
17!
18!
09!
1Z
0[
13
02
0C
1G
1H
0K
0$
1%
1&
0)
#70000
0"
1#
0D
1E
1_
0]
0^
0&!
1`
#72500
1"
0#
1D
0E
0_
1]
1^
1&!
0`
1b
0$!
1`
0l
16!
1[
12
1I
1'
#75000
0"
1#
0D
1E
1_
0]
0^
0&!
0`
0c
0e
0g
1p
1r
0'!
#77500
1"
0#
1D
0E
0_
1]
1^
1&!
1`
1c
1e
1g
0p
0r
0b
0d
0f
0h
1q
00!
1#!
1:!
1"!
1$!
1'!
0`
0c
0e
0g
1j
1k
1l
0o
1p
0y
0|
0}
0~
1)!
1*!
1+!
1.!
13!
06!
07!
08!
1W
0X
0Y
0Z
0[
16
05
04
03
02
0G
0H
0I
1L
1M
1P
1Q
1R
0%
0&
0'
1+
1*
1.
1/
10
#80000
0"
1#
0D
1E
1_
0]
0^
0&!
1`
#82500
1"
0#
1D
0E
0_
1]
1^
1&!
0`
1b
0$!
1`
0i
0l
0m
0n
14!
15!
16!
19!
1[
12
1C
1I
1J
1K
1$
1'
1(
1)
#85000
0"
1#
0D
1E
1_
0]
0^
0&!
0`
1c
#87500
1"
0#
1D
0E
0_
1]
1^
1&!
1`
0c
0b
1d
0"!
1$!
0`
1c
1i
0k
1l
1m
1o
03!
05!
06!
17!
09!
1Z
0[
13
02
0C
1H
0I
0J
0L
0$
1&
0'
0(
0+
#90000
0"
1#
0D
1E
1_
0]
0^
0&!
1`
#92500
1"
0#
1D
0E
0_
1]
1^
1&!
0`
1b
0$!
1`
1k
0m
15!
07!
1[
12
0H
1J
0&
1(
#95000
0"
1#
0D
1E
1_
0]
0^
0&!
0`
0c
1e
#97500
1"
0#
1D
0E
0_
1]
1^
1&!
1`
1c
0e
0b
0d
1f
0:!
1"!
1$!
0`
0c
1e
0i
0l
1n
04!
16!
19!
1Y
0Z
0[
14
03
02
1C
1I
0K
1$
1'
0)
#100000
0"
1#
0D
1E
1_
0]
0^
0&!
1`
#102500
1"
0#
1D
0E
0_
1]
1^
1&!
0`
1b
0$!
1`
1i
0j
1l
06!
18!
09!
1[
12
0C
1G
0I
0$
1%
0'
#105000
0"
1#
0D
1E
1_
0]
0^
0&!
0`
1c
#107500
1"
0#
1D
0E
0_
1]
1^
1&!
1`
0c
0b
1d
0"!
1$!
0`
1c
1m
05!
1Z
0[
13
02
0J
0(
#110000
0"
1#
0D
1E
1_
0]
0^
0&!
1`
#112500
1"
0#
1D
0E
0_
1]
1^
1&!
0`
1b
0$!
1`
1j
0l
0m
0n
0o
13!
14!
15!
16!
08!
1[
12
0G
1I
1J
1K
1L
0%
1'
1(
1)
1+
#115000
0"
1#
0D
1E
1_
0]
0^
0&!
0`
0c
0e
1g
#117500
1"
0#
1D
0E
0_
1]
1^
1&!
1`
1c
1e
0g
0b
0d
0f
1h
0#!
1:!
1"!
1$!
0`
0c
0e
1g
1l
1m
1n
1o
03!
04!
05!
06!
1X
0Y
0Z
0[
15
04
03
02
0I
0J
0K
0L
0'
0(
0)
0+
#120000
0"
1#
0D
1E
1_
0]
0^
0&!
1`
#122500
1"
0#
1D
0E
0_
1]
1^
1&!
0`
1b
0$!
1`
0m
15!
1[
12
1J
1(
#125000
0"
1#
0D
1E
1_
0]
0^
0&!
0`
1c
#127500
1"
0#
1D
0E
0_
1]
1^
1&!
1`
0c
0b
1d
0"!
1$!
0`
1c
0l
1m
05!
16!
1Z
0[
13
02
1I
0J
1'
0(
#130000
0"
1#
0D
1E
1_
0]
0^
0&!
1`
#132500
1"
0#
1D
0E
0_
1]
1^
1&!
0`
1b
0$!
1`
0i
0j
1l
06!
18!
19!
1[
12
1C
1G
0I
1$
1%
0'
#135000
0"
1#
0D
1E
1_
0]
0^
0&!
0`
0c
1e
#137500
1"
0#
1D
0E
0_
1]
1^
1&!
1`
1c
0e
0b
0d
1f
0:!
1"!
1$!
0`
0c
1e
1i
0k
0o
13!
17!
09!
1Y
0Z
0[
14
03
02
0C
1H
1L
0$
1&
1+
#140000
0"
1#
0D
1E
1_
0]
0^
0&!
1`
#142500
1"
0#
1D
0E
0_
1]
1^
1&!
0`
1b
0$!
1`
0i
1j
1k
0n
1o
03!
14!
07!
08!
19!
1[
12
1C
0G
0H
1K
0L
1$
0%
0&
1)
0+
#145000
0"
1#
0D
1E
1_
0]
0^
0&!
0`
1c
#147500
1"
0#
1D
0E
0_
1]
1^
1&!
1`
0c
0b
1d
0"!
1$!
0`
1c
1i
0j
0k
1n
04!
17!
18!
09!
1Z
0[
13
02
0C
1G
1H
0K
0$
1%
1&
0)
#150000
0"
1#
0D
1E
1_
0]
0^
0&!
1`
#152500
1"
0#
1D
0E
0_
1]
1^
1&!
0`
1b
0$!
1`
0l
16!
1[
12
1I
1'
#155000
0"
1#
0D
1E
1_
0]
0^
0&!
0`
0c
0e
0g
0p
1r
0'!
1s
#157500
1"
0#
1D
0E
0_
1]
1^
1&!
1`
1c
1e
1g
1p
0r
0b
0d
0f
0h
0q
1t
02!
10!
1#!
1:!
1"!
1$!
1'!
0`
0c
0e
0g
1j
1k
1l
0o
0p
1y
0{
1|
1}
1!!
0(!
0*!
0+!
1,!
0.!
13!
06!
07!
08!
1V
0W
0X
0Y
0Z
0[
17
06
05
04
03
02
0G
0H
0I
1L
0M
1O
0P
0Q
0S
0%
0&
0'
1+
0*
1-
0.
0/
01
#160000
0"
1#
0D
1E
1_
0]
0^
0&!
1`
#162500
1"
0#
1D
0E
0_
1]
1^
1&!
0`
1b
0$!
1`
0i
0l
0m
0n
14!
15!
16!
19!
1[
12
1C
1I
1J
1K
1$
1'
1(
1)
#165000
0"
1#
0D
1E
1_
0]
0^
0&!
0`
1c
#167500
1"
0#
1D
0E
0_
1]
1^
1&!
1`
0c
0b
1d
0"!
1$!
0`
1c
1i
0k
1l
1m
1o
03!
05!
06!
17!
09!
1Z
0[
13
02
0C
1H
0I
0J
0L
0$
1&
0'
0(
0+
#170000
0"
1#
0D
1E
1_
0]
0^
0&!
1`
#172500
1"
0#
1D
0E
0_
1]
1^
1&!
0`
1b
0$!
1`
1k
0m
15!
07!
1[
12
0H
1J
0&
1(
#175000
0"
1#
0D
1E
1_
0]
0^
0&!
0`
0c
1e
#177500
1"
0#
1D
0E
0_
1]
1^
1&!
1`
1c
0e
0b
0d
1f
0:!
1"!
1$!
0`
0c
1e
0i
0l
1n
04!
16!
19!
1Y
0Z
0[
14
03
02
1C
1I
0K
1$
1'
0)
#180000
0"
1#
0D
1E
1_
0]
0^
0&!
1`
#182500
1"
0#
1D
0E
0_
1]
1^
1&!
0`
1b
0$!
1`
1i
0j
1l
06!
18!
09!
1[
12
0C
1G
0I
0$
1%
0'
#185000
0"
1#
0D
1E
1_
0]
0^
0&!
0`
1c
#187500
1"
0#
1D
0E
0_
1]
1^
1&!
1`
0c
0b
1d
0"!
1$!
0`
1c
1m
05!
1Z
0[
13
02
0J
0(
#190000
0"
1#
0D
1E
1_
0]
0^
0&!
1`
#192500
1"
0#
1D
0E
0_
1]
1^
1&!
0`
1b
0$!
1`
1j
0l
0m
0n
0o
13!
14!
15!
16!
08!
1[
12
0G
1I
1J
1K
1L
0%
1'
1(
1)
1+
#195000
0"
1#
0D
1E
1_
0]
0^
0&!
0`
0c
0e
1g
#197500
1"
0#
1D
0E
0_
1]
1^
1&!
1`
1c
1e
0g
0b
0d
0f
1h
0#!
1:!
1"!
1$!
0`
0c
0e
1g
1l
1m
1n
1o
03!
04!
05!
06!
1X
0Y
0Z
0[
15
04
03
02
0I
0J
0K
0L
0'
0(
0)
0+
#200000
0"
1#
0D
1E
1_
0]
0^
0&!
1`
#202500
1"
0#
1D
0E
0_
1]
1^
1&!
0`
1b
0$!
1`
0m
15!
1[
12
1J
1(
#205000
0"
1#
0D
1E
1_
0]
0^
0&!
0`
1c
#207500
1"
0#
1D
0E
0_
1]
1^
1&!
1`
0c
0b
1d
0"!
1$!
0`
1c
0l
1m
05!
16!
1Z
0[
13
02
1I
0J
1'
0(
#210000
0"
1#
0D
1E
1_
0]
0^
0&!
1`
#212500
1"
0#
1D
0E
0_
1]
1^
1&!
0`
1b
0$!
1`
0i
0j
1l
06!
18!
19!
1[
12
1C
1G
0I
1$
1%
0'
#215000
0"
1#
0D
1E
1_
0]
0^
0&!
0`
0c
1e
#217500
1"
0#
1D
0E
0_
1]
1^
1&!
1`
1c
0e
0b
0d
1f
0:!
1"!
1$!
0`
0c
1e
1i
0k
0o
13!
17!
09!
1Y
0Z
0[
14
03
02
0C
1H
1L
0$
1&
1+
#220000
0"
1#
0D
1E
1_
0]
0^
0&!
1`
#222500
1"
0#
1D
0E
0_
1]
1^
1&!
0`
1b
0$!
1`
0i
1j
1k
0n
1o
03!
14!
07!
08!
19!
1[
12
1C
0G
0H
1K
0L
1$
0%
0&
1)
0+
#225000
0"
1#
0D
1E
1_
0]
0^
0&!
0`
1c
#227500
1"
0#
1D
0E
0_
1]
1^
1&!
1`
0c
0b
1d
0"!
1$!
0`
1c
1i
0j
0k
1n
04!
17!
18!
09!
1Z
0[
13
02
0C
1G
1H
0K
0$
1%
1&
0)
#230000
0"
1#
0D
1E
1_
0]
0^
0&!
1`
#232500
1"
0#
1D
0E
0_
1]
1^
1&!
0`
1b
0$!
1`
0l
16!
1[
12
1I
1'
#235000
0"
1#
0D
1E
1_
0]
0^
0&!
0`
0c
0e
0g
1p
1r
0'!
#237500
1"
0#
1D
0E
0_
1]
1^
1&!
1`
1c
1e
1g
0p
0r
0b
0d
0f
0h
1q
00!
1#!
1:!
1"!
1$!
1'!
0`
0c
0e
0g
1j
1k
1l
0o
1p
1{
0}
1*!
0,!
13!
06!
07!
08!
1W
0X
0Y
0Z
0[
16
05
04
03
02
0G
0H
0I
1L
0O
1Q
0%
0&
0'
1+
0-
1/
#240000
0"
1#
0D
1E
1_
0]
0^
0&!
1`
#242500
1"
0#
1D
0E
0_
1]
1^
1&!
0`
1b
0$!
1`
0i
0l
0m
0n
14!
15!
16!
19!
1[
12
1C
1I
1J
1K
1$
1'
1(
1)
#245000
0"
1#
0D
1E
1_
0]
0^
0&!
0`
1c
#247500
1"
0#
1D
0E
0_
1]
1^
1&!
1`
0c
0b
1d
0"!
1$!
0`
1c
1i
0k
1l
1m
1o
03!
05!
06!
17!
09!
1Z
0[
13
02
0C
1H
0I
0J
0L
0$
1&
0'
0(
0+
#250000
0"
1#
0D
1E
1_
0]
0^
0&!
1`
#252500
1"
0#
1D
0E
0_
1]
1^
1&!
0`
1b
0$!
1`
1k
0m
15!
07!
1[
12
0H
1J
0&
1(
#255000
0"
1#
0D
1E
1_
0]
0^
0&!
0`
0c
1e
#257500
1"
0#
1D
0E
0_
1]
1^
1&!
1`
1c
0e
0b
0d
1f
0:!
1"!
1$!
0`
0c
1e
0i
0l
1n
04!
16!
19!
1Y
0Z
0[
14
03
02
1C
1I
0K
1$
1'
0)
#260000
0"
1#
0D
1E
1_
0]
0^
0&!
1`
#262500
1"
0#
1D
0E
0_
1]
1^
1&!
0`
1b
0$!
1`
1i
0j
1l
06!
18!
09!
1[
12
0C
1G
0I
0$
1%
0'
#265000
0"
1#
0D
1E
1_
0]
0^
0&!
0`
1c
#267500
1"
0#
1D
0E
0_
1]
1^
1&!
1`
0c
0b
1d
0"!
1$!
0`
1c
1m
05!
1Z
0[
13
02
0J
0(
#270000
0"
1#
0D
1E
1_
0]
0^
0&!
1`
#272500
1"
0#
1D
0E
0_
1]
1^
1&!
0`
1b
0$!
1`
1j
0l
0m
0n
0o
13!
14!
15!
16!
08!
1[
12
0G
1I
1J
1K
1L
0%
1'
1(
1)
1+
#275000
0"
1#
0D
1E
1_
0]
0^
0&!
0`
0c
0e
1g
#277500
1"
0#
1D
0E
0_
1]
1^
1&!
1`
1c
1e
0g
0b
0d
0f
1h
0#!
1:!
1"!
1$!
0`
0c
0e
1g
1l
1m
1n
1o
03!
04!
05!
06!
1X
0Y
0Z
0[
15
04
03
02
0I
0J
0K
0L
0'
0(
0)
0+
#280000
0"
1#
0D
1E
1_
0]
0^
0&!
1`
#282500
1"
0#
1D
0E
0_
1]
1^
1&!
0`
1b
0$!
1`
0m
15!
1[
12
1J
1(
#285000
0"
1#
0D
1E
1_
0]
0^
0&!
0`
1c
#287500
1"
0#
1D
0E
0_
1]
1^
1&!
1`
0c
0b
1d
0"!
1$!
0`
1c
0l
1m
05!
16!
1Z
0[
13
02
1I
0J
1'
0(
#290000
0"
1#
0D
1E
1_
0]
0^
0&!
1`
#292500
1"
0#
1D
0E
0_
1]
1^
1&!
0`
1b
0$!
1`
0i
0j
1l
06!
18!
19!
1[
12
1C
1G
0I
1$
1%
0'
#295000
0"
1#
0D
1E
1_
0]
0^
0&!
0`
0c
1e
#297500
1"
0#
1D
0E
0_
1]
1^
1&!
1`
1c
0e
0b
0d
1f
0:!
1"!
1$!
0`
0c
1e
1i
0k
0o
13!
17!
09!
1Y
0Z
0[
14
03
02
0C
1H
1L
0$
1&
1+
#300000
0"
1#
0D
1E
1_
0]
0^
0&!
1`
#302500
1"
0#
1D
0E
0_
1]
1^
1&!
0`
1b
0$!
1`
0i
1j
1k
0n
1o
03!
14!
07!
08!
19!
1[
12
1C
0G
0H
1K
0L
1$
0%
0&
1)
0+
#305000
0"
1#
0D
1E
1_
0]
0^
0&!
0`
1c
#307500
1"
0#
1D
0E
0_
1]
1^
1&!
1`
0c
0b
1d
0"!
1$!
0`
1c
1i
0j
0k
1n
04!
17!
18!
09!
1Z
0[
13
02
0C
1G
1H
0K
0$
1%
1&
0)
#310000
0"
1#
0D
1E
1_
0]
0^
0&!
1`
#312500
1"
0#
1D
0E
0_
1]
1^
1&!
0`
1b
0$!
1`
0l
16!
1[
12
1I
1'
#315000
0"
1#
0D
1E
1_
0]
0^
0&!
0`
0c
0e
0g
0p
1r
0'!
0s
1u
#317500
1"
0#
1D
0E
0_
1]
1^
1&!
1`
1c
1e
1g
1p
0r
0b
0d
0f
0h
0q
0t
1v
0/!
12!
10!
1#!
1:!
1"!
1$!
1'!
0`
0c
0e
0g
1j
1k
1l
0o
0p
0y
0|
1~
0)!
1+!
1.!
13!
06!
07!
08!
1U
0V
0W
0X
0Y
0Z
0[
18
07
06
05
04
03
02
0G
0H
0I
1L
1M
1P
0R
0%
0&
0'
1+
1*
1.
00
#320000
0"
1#
0D
1E
1_
0]
0^
0&!
1`
#322500
1"
0#
1D
0E
0_
1]
1^
1&!
0`
1b
0$!
1`
0i
0l
0m
0n
14!
15!
16!
19!
1[
12
1C
1I
1J
1K
1$
1'
1(
1)
#325000
0"
1#
0D
1E
1_
0]
0^
0&!
0`
1c
#327500
1"
0#
1D
0E
0_
1]
1^
1&!
1`
0c
0b
1d
0"!
1$!
0`
1c
1i
0k
1l
1m
1o
03!
05!
06!
17!
09!
1Z
0[
13
02
0C
1H
0I
0J
0L
0$
1&
0'
0(
0+
#330000
0"
1#
0D
1E
1_
0]
0^
0&!
1`
#332500
1"
0#
1D
0E
0_
1]
1^
1&!
0`
1b
0$!
1`
1k
0m
15!
07!
1[
12
0H
1J
0&
1(
#335000
0"
1#
0D
1E
1_
0]
0^
0&!
0`
0c
1e
#337500
1"
0#
1D
0E
0_
1]
1^
1&!
1`
1c
0e
0b
0d
1f
0:!
1"!
1$!
0`
0c
1e
0i
0l
1n
04!
16!
19!
1Y
0Z
0[
14
03
02
1C
1I
0K
1$
1'
0)
#340000
0"
1#
0D
1E
1_
0]
0^
0&!
1`
#342500
1"
0#
1D
0E
0_
1]
1^
1&!
0`
1b
0$!
1`
1i
0j
1l
06!
18!
09!
1[
12
0C
1G
0I
0$
1%
0'
#345000
0"
1#
0D
1E
1_
0]
0^
0&!
0`
1c
#347500
1"
0#
1D
0E
0_
1]
1^
1&!
1`
0c
0b
1d
0"!
1$!
0`
1c
1m
05!
1Z
0[
13
02
0J
0(
#350000
0"
1#
0D
1E
1_
0]
0^
0&!
1`
#352500
1"
0#
1D
0E
0_
1]
1^
1&!
0`
1b
0$!
1`
1j
0l
0m
0n
0o
13!
14!
15!
16!
08!
1[
12
0G
1I
1J
1K
1L
0%
1'
1(
1)
1+
#355000
0"
1#
0D
1E
1_
0]
0^
0&!
0`
0c
0e
1g
#357500
1"
0#
1D
0E
0_
1]
1^
1&!
1`
1c
1e
0g
0b
0d
0f
1h
0#!
1:!
1"!
1$!
0`
0c
0e
1g
1l
1m
1n
1o
03!
04!
05!
06!
1X
0Y
0Z
0[
15
04
03
02
0I
0J
0K
0L
0'
0(
0)
0+
#360000
0"
1#
0D
1E
1_
0]
0^
0&!
1`
#362500
1"
0#
1D
0E
0_
1]
1^
1&!
0`
1b
0$!
1`
0m
15!
1[
12
1J
1(
#365000
0"
1#
0D
1E
1_
0]
0^
0&!
0`
1c
#367500
1"
0#
1D
0E
0_
1]
1^
1&!
1`
0c
0b
1d
0"!
1$!
0`
1c
0l
1m
05!
16!
1Z
0[
13
02
1I
0J
1'
0(
#370000
0"
1#
0D
1E
1_
0]
0^
0&!
1`
#372500
1"
0#
1D
0E
0_
1]
1^
1&!
0`
1b
0$!
1`
0i
0j
1l
06!
18!
19!
1[
12
1C
1G
0I
1$
1%
0'
#375000
0"
1#
0D
1E
1_
0]
0^
0&!
0`
0c
1e
#377500
1"
0#
1D
0E
0_
1]
1^
1&!
1`
1c
0e
0b
0d
1f
0:!
1"!
1$!
0`
0c
1e
1i
0k
0o
13!
17!
09!
1Y
0Z
0[
14
03
02
0C
1H
1L
0$
1&
1+
#380000
0"
1#
0D
1E
1_
0]
0^
0&!
1`
#382500
1"
0#
1D
0E
0_
1]
1^
1&!
0`
1b
0$!
1`
0i
1j
1k
0n
1o
03!
14!
07!
08!
19!
1[
12
1C
0G
0H
1K
0L
1$
0%
0&
1)
0+
#385000
0"
1#
0D
1E
1_
0]
0^
0&!
0`
1c
#387500
1"
0#
1D
0E
0_
1]
1^
1&!
1`
0c
0b
1d
0"!
1$!
0`
1c
1i
0j
0k
1n
04!
17!
18!
09!
1Z
0[
13
02
0C
1G
1H
0K
0$
1%
1&
0)
#390000
0"
1#
0D
1E
1_
0]
0^
0&!
1`
#392500
1"
0#
1D
0E
0_
1]
1^
1&!
0`
1b
0$!
1`
0l
16!
1[
12
1I
1'
#395000
0"
1#
0D
1E
1_
0]
0^
0&!
0`
0c
0e
0g
1p
1r
0'!
#397500
1"
0#
1D
0E
0_
1]
1^
1&!
1`
1c
1e
1g
0p
0r
0b
0d
0f
0h
1q
00!
1#!
1:!
1"!
1$!
1'!
0`
0c
0e
0g
1j
1k
1l
0o
1p
1y
0z
1|
0+!
1-!
0.!
13!
06!
07!
08!
1W
0X
0Y
0Z
0[
16
05
04
03
02
0G
0H
0I
1L
0M
1N
0P
0%
0&
0'
1+
0*
1,
0.
#400000
0"
1#
0D
1E
1_
0]
0^
0&!
1`
#402500
1"
0#
1D
0E
0_
1]
1^
1&!
0`
1b
0$!
1`
0i
0l
0m
0n
14!
15!
16!
19!
1[
12
1C
1I
1J
1K
1$
1'
1(
1)
#405000
0"
1#
0D
1E
1_
0]
0^
0&!
0`
1c
#407500
1"
0#
1D
0E
0_
1]
1^
1&!
1`
0c
0b
1d
0"!
1$!
0`
1c
1i
0k
1l
1m
1o
03!
05!
06!
17!
09!
1Z
0[
13
02
0C
1H
0I
0J
0L
0$
1&
0'
0(
0+
#410000
0"
1#
0D
1E
1_
0]
0^
0&!
1`
#412500
1"
0#
1D
0E
0_
1]
1^
1&!
0`
1b
0$!
1`
1k
0m
15!
07!
1[
12
0H
1J
0&
1(
#415000
0"
1#
0D
1E
1_
0]
0^
0&!
0`
0c
1e
